(1, -7, 0, 0, 0)
(1, -7, 0, 1, -1)
(1, -7, 0, 2, -2)
(1, -7, 0, 3, -3)
(1, -7, 0, 4, -4)
(1, -7, 0, 5, -5)
(1, -7, 0, 6, -6)
(1, -7, 0, 7, -7)
(1, -7, 0, 8, -8)
(1, -7, 0, 9, -9)
(1, -7, 0, 10, -10)
(1, -7, 0, 11, -11)
(1, -7, 0, 12, -12)
(1, -7, 0, 13, -13)
(1, -7, 0, 14, -14)
(1, -7, 0, 15, -15)
(1, -7, 0, 16, -16)
(1, -7, 0, 17, -17)
(1, -7, 0, 18, -18)
(1, -7, 0, 19, -19)
(1, -7, 0, 20, -20)
(1, -7, 0, 21, -21)
(1, -7, 0, 22, -22)
(1, -7, 0, 23, -23)
(1, -7, 0, 24, -24)
(1, -7, 0, 25, -25)
(1, -7, 0, 26, -26)
(1, -7, 0, 27, -27)
(1, -7, 0, 28, -28)
(1, -7, 0, 29, -29)
(1, -7, 0, 30, -30)
(1, -7, 0, 31, -31)
(0, 0, 0, 0, 0)
(0, 0, 0, 0, 0)
(0, 0, 0, 0, 0)
(0, 0, 0, 0, 0)
(0, 0, 0, 0, 0)
